{
  "grids": {
    "xl": {
      "cols": 12,
      "gap": "16",
      "container": "1400",
      "breakpoint": "1600"
    },
    "lg": {
      "cols": 12,
      "gap": "16",
      "container": "904",
      "breakpoint": "1024"
    },
    "md": {
      "cols": 12,
      "gap": "16",
      "container": "720",
      "breakpoint": "768"
    },
    "sm": {
      "cols": 4,
      "gap": "16",
      "container": "327",
      "breakpoint": "375"
    }
  },
  "spacers": {
    "xxs": "8px",
    "xs": "4px",
    "sm": "16px",
    "md": "24px",
    "lg": "32px",
    "xl": "48px",
    "xxl": "64px"
  },
  "colors": {
    "white": {
      "color": "#ffffffff",
      "id": "16:21"
    },
    "black": {
      "color": "#000000ff",
      "id": "11:257"
    },
    "primary": {
      "color": "#000000ff",
      "id": "11:257"
    },
    "success": {
      "color": "#27ae60ff",
      "id": "11:264"
    },
    "primary-light": {
      "color": "#595959ff",
      "id": "11:258"
    },
    "danger": {
      "color": "#eb5757ff",
      "id": "11:265"
    },
    "primary-dark": {
      "color": "#d02904ff",
      "id": "11:259"
    },
    "warning": {
      "color": "#f2c94cff",
      "id": "11:267"
    },
    "secondary": {
      "color": "#2f80edff",
      "id": "11:260"
    },
    "info": {
      "color": "#2d9cdbff",
      "id": "11:269"
    },
    "secondary-light": {
      "color": "#56ccf2ff",
      "id": "11:261"
    },
    "dark": {
      "color": "#a1a1a1ff",
      "id": "11:273"
    },
    "secondary-dark": {
      "color": "#1465d2ff",
      "id": "11:262"
    },
    "light": {
      "color": "#e0e0e0ff",
      "id": "11:274"
    }
  },
  "fonts": {
    "link": {
      "id": "11:171",
      "fontFamily": "Arial",
      "fontSize": "16px",
      "fontWeight": 400,
      "lineHeight": "136.53334045410156%",
      "letterSpacing": "normal"
    },
    "text-bold": {
      "id": "11:172",
      "fontFamily": "Arial",
      "fontSize": "16px",
      "fontWeight": 700,
      "lineHeight": "136.53334045410156%",
      "letterSpacing": "normal"
    },
    "text": {
      "id": "11:173",
      "fontFamily": "Arial",
      "fontSize": "16px",
      "fontWeight": 400,
      "lineHeight": "136.53334045410156%",
      "letterSpacing": "normal"
    },
    "small-bold": {
      "id": "11:174",
      "fontFamily": "Arial",
      "fontSize": "12px",
      "fontWeight": 700,
      "lineHeight": "119.46666717529297%",
      "letterSpacing": "normal"
    },
    "small": {
      "id": "11:175",
      "fontFamily": "Arial",
      "fontSize": "12px",
      "fontWeight": 400,
      "lineHeight": "119.46666717529297%",
      "letterSpacing": "normal"
    },
    "lead-bold": {
      "id": "11:178",
      "fontFamily": "Arial",
      "fontSize": "18px",
      "fontWeight": 700,
      "lineHeight": "119.46666717529297%",
      "letterSpacing": "normal"
    },
    "lead": {
      "id": "11:179",
      "fontFamily": "Arial",
      "fontSize": "18px",
      "fontWeight": 400,
      "lineHeight": "119.46666717529297%",
      "letterSpacing": "normal"
    },
    "h6": {
      "id": "11:180",
      "fontFamily": "Arial",
      "fontSize": "12px",
      "fontWeight": 700,
      "lineHeight": "119.46666717529297%",
      "letterSpacing": "normal"
    },
    "h5": {
      "id": "11:181",
      "fontFamily": "Arial",
      "fontSize": "14px",
      "fontWeight": 700,
      "lineHeight": "119.46666717529297%",
      "letterSpacing": "normal"
    },
    "h4": {
      "id": "11:182",
      "fontFamily": "Arial",
      "fontSize": "16px",
      "fontWeight": 700,
      "lineHeight": "119.46666717529297%",
      "letterSpacing": "normal"
    },
    "h3": {
      "id": "11:183",
      "fontFamily": "Arial",
      "fontSize": "20px",
      "fontWeight": 700,
      "lineHeight": "119.46666717529297%",
      "letterSpacing": "normal"
    },
    "h2": {
      "id": "11:184",
      "fontFamily": "Arial",
      "fontSize": "24px",
      "fontWeight": 700,
      "lineHeight": "119.46666717529297%",
      "letterSpacing": "normal"
    },
    "h1": {
      "id": "11:185",
      "fontFamily": "Arial",
      "fontSize": "32px",
      "fontWeight": 700,
      "lineHeight": "93.35466766357422%",
      "letterSpacing": "normal"
    },
    "headings": {
      "id": "13:0",
      "fontFamily": "Arial"
    },
    "base": {
      "id": "13:1",
      "fontFamily": "Arial"
    }
  },
  "components": {
    "atoms": {
      "buttons": {
        "primaryOutline": {
          "border": "2px solid #000000ff",
          "paddingRight": "32px",
          "paddingTop": "8px",
          "paddingLeft": "32px",
          "paddingBottom": "8px",
          "textAlign": "INHERIT",
          "color": "#000000ff",
          "fontWeight": 400,
          "fontSize": "18px",
          "lineHeight": "25.19999885559082px",
          "letterSpacing": 0
        },
        "primary": {
          "background": "#000000ff",
          "border": "none",
          "paddingRight": "32px",
          "paddingTop": "8px",
          "paddingLeft": "32px",
          "paddingBottom": "8px",
          "textAlign": "INHERIT",
          "color": "#ffffffff",
          "fontWeight": 400,
          "fontSize": "18px",
          "lineHeight": "25.19999885559082px",
          "letterSpacing": 0
        }
      }
    }
  }
}
